1,2,3,4,5,1,2,3,4,5,5
2,2,4,4,6,6,7,8,7,8,5
0,0,0,0,0,0,0,0,0,0,1
1,3,3,1,9,6,10,6,9,10,6
9,2,3,6,5,6,5,3,9,2,4
3,4,3,4,8,7,7,8,9,9,6
1,2,5,6,5,6,7,1,2,7,4
0,0,0,0,0,0,0,0,0,0,1
10,8,6,5,5,6,9,8,9,10,5
1,2,3,4,1,2,3,8,8,4,5
7,5,10,8,5,9,7,8,9,10,5
6,2,3,3,5,6,5,9,9,2,5
0,0,0,0,0,0,0,0,0,0,1
1,2,2,4,4,10,7,7,1,10,5
1,1,9,7,5,6,7,5,9,6,5
8,9,3,4,10,3,4,8,9,10,5
1,2,3,4,5,4,1,2,3,5,5
0,0,0,0,0,0,0,0,0,0,1
0,0,0,0,0,0,0,0,0,0,1
0,0,0,0,0,0,0,0,0,0,1
1,10,1,8,5,6,6,8,5,10,5
10,2,2,4,6,6,4,8,8,10,4
4,7,3,4,3,9,7,10,9,10,5
5,2,7,2,5,6,7,8,6,8,5
0,0,0,0,0,0,0,0,0,0,1
1,2,10,9,2,6,6,1,9,10,5
0,0,0,0,0,0,0,0,0,0,1
3,6,3,4,7,6,7,4,10,10,5
1,2,4,4,5,5,8,8,2,1,5
9,5,8,10,5,7,7,8,9,10,5
1,2,3,9,1,8,2,8,9,3,5
0,0,0,0,0,0,0,0,0,0,1
2,2,6,10,5,6,7,5,7,10,5
1,3,3,4,4,6,1,6,9,9,5
1,4,3,4,3,1,8,8,10,10,5
0,0,0,0,0,0,0,0,0,0,1
1,2,7,1,5,2,7,5,9,9,5
0,0,0,0,0,0,0,0,0,0,1
7,8,3,4,6,6,7,8,3,4,6
